Gothic Textual Data
…
sentiment_dist <- ggplot(sentiment_time, aes(index, sentiment, fill = title)) +
  geom_col(show.legend = FALSE) +
  facet_wrap(~title, ncol = 2, scales = "free_x")

write_rds(sentiment_time, "gothiclit/sentiment_time.rds")

These graphs display the change in positive versus negative sentiment of the words as each text progresses

I want to map pronoun usage and negative sentiment across the books to see if I can track monstrosity, but I genuinely have no idea how to do all of that. So, I am frustrated.

tidy_gothic %>% 
  count(word, sort = TRUE)

## # A tibble: 15,588 x 2
##    word          n
##    <chr>     <int>
##  1 time        788
##  2 night       567
##  3 eyes        493
##  4 door        469
##  5 day         428
##  6 hand        415
##  7 christine   397
##  8 dear        383
##  9 life        380
## 10 raoul       341
## #  with 15,578 more rows

## checking the most common words across all five texts

The Phantom of the Opera skews the data because Christine and Raoul are in the top ten most frequent words! Moving on to look at each book individually.

tidy_frankenstein %>% 
   count(word, sort = TRUE)

## # A tibble: 6,566 x 2
##    word          n
##    <chr>     <int>
##  1 life        115
##  2 father      113
##  3 eyes        104
##  4 time         98
##  5 night        92
##  6 elizabeth    88
##  7 found        87
##  8 mind         85
##  9 heart        81
## 10 day          80
## #  with 6,556 more rows

## words that are unique to Frankenstein due to status as names: elizabeth

tidy_jekyllhyde %>% 
  count(word, sort = TRUE)

## # A tibble: 3,497 x 2
##    word         n
##    <chr>    <int>
##  1 utterson   128
##  2 hyde        97
##  3 jekyll      83
##  4 lawyer      67
##  5 poole       61
##  6 sir         59
##  7 door        51
##  8 life        46
##  9 hand        45
## 10 dr          42
## #  with 3,487 more rows

## words that are unique to Jekyll and Hyde due to status as names: poole, utterson, jekyll, hyde

tidy_carmilla %>% 
  count(word, sort = TRUE)

## # A tibble: 3,624 x 2
##    word         n
##    <chr>    <int>
##  1 father      87
##  2 time        65
##  3 carmilla    63
##  4 lady        60
##  5 madame      48
##  6 night       42
##  7 door        40
##  8 moment      39
##  9 dear        38
## 10 eyes        38
## #  with 3,614 more rows

## words that are unique to Carmilla due to status as names: carmilla

tidy_dracula %>% 
  count(word, sort = TRUE)

## # A tibble: 9,072 x 2
##    word        n
##    <chr>   <int>
##  1 time      390
##  2 van       323
##  3 night     310
##  4 helsing   301
##  5 dear      224
##  6 lucy      223
##  7 day       220
##  8 hand      210
##  9 mina      210
## 10 door      200
## #  with 9,062 more rows

## words that are unique to Dracula due to status as names: van, helsing, lucy, mina

tidy_phantom %>% 
  count(word, sort = TRUE)

## # A tibble: 6,085 x 2
##    word          n
##    <chr>     <int>
##  1 christine   397
##  2 raoul       341
##  3 erik        216
##  4 time        205
##  5 voice       204
##  6 ghost       193
##  7 opera       183
##  8 richard     163
##  9 door        154
## 10 box         147
## #  with 6,075 more rows
…
